@startuml
skinparam shadowing false
skinparam classBorderThickness .5
skinparam monochrome true
skinparam defaultFontName "Verdana"
skinparam defaultFontSize 14
skinparam sequence {

   ParticipantBackgroundColor transparent
   ParticipantFontSize 16

   ActorFontSize 16
}

autonumber

Participant Test #WHITE
Participant "ctrl:AddAccountToGroupController"
Participant "src:AddAccountToGroupService"
Participant "gprp:GroupRepository"
Participant "group:Group"
Participant "actrp:AccountRepository"

activate Test #white

Test -> "ctrl:AddAccountToGroupController" : addAccount\n(groupDescription,email,\ndenomination,\ndescription)
activate "ctrl:AddAccountToGroupController" #white

"ctrl:AddAccountToGroupController"->"AccountAssembler":mapToEntryDto\n(groupDescription,email,\ndenomination,\ndescription)
activate "AccountAssembler" #white
"AccountAssembler"-> "AccountEntryDto"**:create
"AccountAssembler"--> "ctrl:AddAccountToGroupController"
deactivate "AccountAssembler"

 "ctrl:AddAccountToGroupController" -> "src:AddAccountToGroupService":AccountEntryDto
activate "src:AddAccountToGroupService" #white

 "src:AddAccountToGroupService" -> "gprp:GroupRepository" : findByID(groupID)
activate "gprp:GroupRepository" #white
 "gprp:GroupRepository" --> "src:AddAccountToGroupService" : group

deactivate "gprp:GroupRepository" #white

 "src:AddAccountToGroupService" -> "group:Group" : isResponsible(personID)
activate "group:Group" #white

 "group:Group" -> "group:Group" : responsibles.contains(personID)
activate "group:Group" #white


deactivate "group:Group" #white
deactivate "group:Group" #white

 "src:AddAccountToGroupService" -> "actrp:AccountRepository" : findByID(accountID).isPresent

 create "account:Account"
 "src:AddAccountToGroupService" -> "account:Account" : create (denomination, description,groupID)

 activate "account:Account" #white
 "account:Account" -> "account:Account" : create accountID

  activate "account:Account" #white

 "account:Account" --> "src:AddAccountToGroupService" : account

deactivate "account:Account" #white
deactivate "account:Account" #white

 "src:AddAccountToGroupService" -> "actrp:AccountRepository": save(account)

"src:AddAccountToGroupService" -> "AccountAssembler": mapToDto(account)

create "accountDTO:AccountDTO"
"AccountAssembler" -> "accountDTO:AccountDTO" : create
activate AccountAssembler #white


"AccountAssembler" --> "src:AddAccountToGroupService": accountDTO
deactivate "AccountAssembler"

"src:AddAccountToGroupService" --> "ctrl:AddAccountToGroupController": accountDTO
deactivate "src:AddAccountToGroupService"
"ctrl:AddAccountToGroupController" --> Test: accountDTO
deactivate "ctrl:AddAccountToGroupController"
deactivate Test #white

@enduml