@startuml
skinparam shadowing false
skinparam classBorderThickness .5
skinparam monochrome true
skinparam defaultFontName "Verdana"
skinparam defaultFontSize 14

participant Test #white

create "p1:Person"
Test --> "p1:Person": create

create "g1:Group"
Test --> "g1:Group": create

create "ledger:Ledger"
"g1:Group" --> "ledger:Ledger": create

create "list:Set<Transactions>"
"ledger:Ledger" --> "list:Set<Transactions>": create

Test --> "p1:Person": p1.addTransaction(...,g1)
"p1:Person" --> "g1:Group": isMember(p1)
"p1:Person" --> "g1:Group": g1.addTransaction(...)
"g1:Group" --> "ledger:Ledger": ledger.addTransaction(...)

create "transaction:Transactions"
"ledger:Ledger" --> "transaction:Transactions": create
"ledger:Ledger" --> "list:Set<Transactions>": list.add(transaction)

@enduml


