@startuml
skinparam shadowing false
skinparam classBorderThickness .5
skinparam monochrome true
skinparam defaultFontName "Verdana"
skinparam defaultFontSize 14
skinparam linetype polyline

hide empty methods
left to right direction

enum Periodicity{
    DAILY
    WORKDAYS
    WEEKLY
    MONTHLY
}
class Person  {
    name : String
    birthDate : String
    birthPlace : String
}
class Scheduler{
    tasks : Set<ScheduledTask>
}
class ScheduledTask{
    amount : double
    description : String
    category : Category
    debit : Account
    credit : Account
    aTransactionType : TransactionType
    aPeriodType : Periodicity
}
class Transaction{

}
enum TransactionType{
    CREDIT
    DEBIT
}




Ledger "1 " --"*" Transaction: registers

Person "0..1" -- "1" Ledger : creates

Person "1" -- "has"Person: mother
Person "1" -- Person: father
Person "*" -- Person: siblings


Person"*"--"1"Scheduler:owns

Scheduler "*" --"1" ScheduledTask: collects

ScheduledTask "*" --"1" Periodicity: uses

Transaction"*" --"1" TransactionType


@enduml