@startuml
skinparam shadowing false
skinparam classBorderThickness .5
skinparam monochrome true
skinparam defaultFontName "Verdana"
skinparam defaultFontSize 14
skinparam sequence {
   ParticipantFontSize 16
   ActorFontSize 16
}

autonumber

activate IntegrationTest #white
"IntegrationTest" -> "SpringApplication": GET\n /groups?type=families
activate "SpringApplication" #white
autonumber 1.1
  SpringApplication -> "ctrl:GetFamiliesRestController" : getFamilies()
  activate "ctrl:GetFamiliesRestController" #White
  autonumber 1.1.1
  "ctrl:GetFamiliesRestController" -> "srv:GetFamiliesService" : getFamilies()
  activate "srv:GetFamiliesService"

  "srv:GetFamiliesService" --> "ctrl:GetFamiliesRestController" : familiesDTO
  deactivate "srv:GetFamiliesService" #white
    loop for each family in families
  create ":familyResponseDTO"
    "ctrl:GetFamiliesRestController" -> ":familyResponseDTO" : familyResponseDTO = mapToDTO(family)
    "ctrl:GetFamiliesRestController" -> "ctrl:GetFamiliesRestController" : familiesDTOList.add(familyResponseDTO)
    end
  "ctrl:GetFamiliesRestController" --> "SpringApplication" : HttpResponse
  deactivate "ctrl:GetFamiliesRestController" #white
    autonumber 1.2
  "SpringApplication" --> IntegrationTest : HttpResponse
  deactivate IntegrationTest
@enduml