@startuml
skinparam shadowing false
skinparam classBorderThickness .5
skinparam monochrome true
skinparam defaultFontName "Verdana"
skinparam defaultFontSize 14

participant Test #white

activate Test #white
create "ctrl:us012Controller"
Test -> "ctrl:us012Controller" : create
Test -> "ctrl:us012Controller" : us012Controller.getTransactionsInPeriod\n(initDate,endDate, g1, p1)
activate "ctrl:us012Controller" #white
"ctrl:us012Controller" -> "g1:Group" : g1.getTransactionsInPeriod\n(initDate,endDate, p1)
activate "g1:Group" #white
"g1:Group" -> "ledger:Ledger" : ledger.getTransactionsInPeriod\n(initDate,endDate,p1,g1)
"ledger:Ledger" -> "g1:Group"  : g1.isMember(p1)
"g1:Group" -> "ledger:Ledger"
create "g1:Group"
create "p1:Person"
create "ledger:Ledger"
activate "ledger:Ledger" #white
deactivate "ledger:Ledger"
deactivate "g1:Group"
deactivate "ctrl:us012Controller"

@enduml
